{
  "merchant": "pistor",
  "version": "1.0",
  "merchant_relationship": [
    {
      "customer_key": "001337",
      "label": "1337",
      "delivery_address": {
        "street": "Schlossstrasse 37",
        "postal_code": "4200",
        "city": "Schlossburg",
        "country_code": "CH"
      },
      "delivery_methods": ["pistor-delivery", "pistor-pickup-rothenburg"],
      "price_group_key": "bronze"
    },
    {
      "customer_key": "001984",
      "label": "1984",
      "active": false,
      "delivery_address": {
        "street": "Bächerstrasse 42",
        "street_additional": "Hinter der Post",
        "postal_code": "4830",
        "city": "Weizenmühle",
        "country_code": "CH"
      },
      "delivery_methods": [
        {
          "delivery_method": "pistor-post",
          "delivery_group": "001"
        },
        {
          "delivery_method": "pistor-delivery",
          "delivery_group": "001"
        },
        "pistor-pickup-rothenburg"
      ],
      "price_group_key": "001984",
      "transaction_fees": [
        {
          "fee_type": "delivery_fee",
          "delivery_method": "pistor-post",
          "fee_model": {
            "logic": "single_value_threshold",
            "applies_to": "order",
            "value_reference": "order_total",
            "fee_tiers": [
              {
                "upper_bound": 20000000,
                "fee": 2000000
              },
              {
                "upper_bound": 50000000,
                "fee": 3000000
              },
              {
                "upper_bound": 100000000,
                "fee": 4000000
              }
            ],
            "default_fee": 0
          }
        },
        {
          "fee_type": "delivery_fee",
          "delivery_method": "pistor-delivery",
          "fee_model": {
            "logic": "single_value_threshold",
            "applies_to": "delivery",
            "value_reference": "delivery_total",
            "default_fee": 2000000
          }
        },
        {
          "fee_type": "handling_fee",
          "shipping_method": null,
          "fee_model": {
            "logic": "single_value_threshold",
            "applies_to": "order",
            "value_reference": "order_total",
            "default_fee": 2000000
          }
        },
        {
          "fee_type": "small_order_surcharge",
          "shipping_method": "pistor-delivery",
          "fee_model": {
            "logic": "single_value_threshold",
            "applies_to": "order",
            "value_reference": "order_total",
            "fee_tiers": [
              {
                "upper_bound": 10000000,
                "fee": 2000000
              },
              {
                "upper_bound": 20000000,
                "fee": 3000000
              }
            ],
            "default_fee": 2000000
          }
        },
        {
          "fee_type": "energy_surcharge",
          "shipping_method": null,
          "fee_model": {
            "logic": "single_value_threshold_percentage",
            "applies_to": "delivery",
            "value_reference": "delivery_total",
            "fee_tiers": [
              {
                "upper_bound": 60000000,
                "percentage": 300000
              }
            ],
            "default_percentage": 150000
          }
        },
        {
          "fee_type": "other_fee",
          "shipping_method": null,
          "fee_model": {
            "logic": "single_value_threshold_percentage",
            "applies_to": "delivery",
            "value_reference": "delivery_total",
            "default_percentage": 300000
          }
        }
      ]
    }
  ],
  "customer_invitation": [
    {
      "customer_key": "001337",
      "company_name": "Rüedi Beck AG",
      "uid": "CHE-123.456.789",
      "legal_form": "limited_liability_company",
      "business_units": [
        {
          "customer_key": "001337",
          "name": "Bäckerei"
        },
        {
          "customer_key": "001338",
          "parent_customer_key": "001337",
          "name": "Café"
        }
      ],
      "contact_person": {
        "email": "hans@rüedi-beck.test",
        "first_name": "Hans",
        "last_name": "Rüedi",
        "gender": "male",
        "language_code": "de_CH"
      }
    }
  ]
}
